<svg xmlns="http://www.w3.org/2000/svg" xmlns:xlink="http://www.w3.org/1999/xlink" version="1.1" id="Layer_1" x="0px" y="0px" width="42px" height="42px" viewBox="0 0 42 42" xml:space="preserve" enable-background="new 0 0 42 42">
  <g>
    <defs>
      <polygon id="SVGID_1_" points="21.13 7.48 21.13 20.35 33.53 20.35 33.53 20.89 21.13 20.89 21.13 33.81 20.58 33.81 20.58 20.89 8.24 20.89 8.24 20.35 20.58 20.35 20.58 7.48 "/>
    </defs>
    <clipPath id="SVGID_2_">
      <use xlink:href="#SVGID_1_" overflow="visible"/>
    </clipPath>
    <g clip-path="url(#SVGID_2_)">
      <defs>
        <rect id="SVGID_3_" x="-3" y="-13.5" width="48" height="65"/>
      </defs>
      <clipPath id="SVGID_4_">
        <use xlink:href="#SVGID_3_" overflow="visible"/>
      </clipPath>
      <rect x="3.24" y="2.48" width="35.29" height="36.33" clip-path="url(#SVGID_4_)"/>
    </g>
  </g>
</svg>